~~NOTOC~~

====== MI-NON.16 - Nelineární optimalizace a numerické metody ======

//**Oficiální stránka předmětu**//

  * vyučující: [[:teacher:start]]

===== Aktuality =====

{{blog>:news?10}}

===== Přístup k materiálům =====

  * **Pro přístup k materiálům je vyžadováno přihlášení!**
   
