~~NOTOC~~

====== MI-PPW - Přístupnost a použitelnost webu ======

//**Oficiální stránka předmětu**//

  * vyučující: [[:teacher:start]]

===== Aktuality =====

{{blog>:news?10}}

===== Přístup k materiálům =====

  * **Pro přístup k materiálům je vyžadováno přihlášení!**
   
