~~NOTOC~~

====== BI-GRA - Grafové algoritmy a základy teorie složitosti ======

Vyučující: Doc. RNDr. Josef Kolář, CSc., Ing. Jiří Chludil

Přednáška (společná s BIE-GRA) - ST 16:15 - 17:45, cvičení - PA 9:15 - 10:45






===== Přístup k materiálům =====

  * **Pro přístup k materiálům je vyžadováno přihlášení!**
   
