~~NOTOC~~

====== BI-MGA - Multimediální a grafické aplikace ======

===== Midterm =====


===== Zkouška =====


===== Test v semestru =====


===== Aktuality =====

Téma semestrální práce bylo aktualizováno pro rok 2015/16.



{{blog>:news?10}}

===== Ztráty a nálezy =====


===== Přístup k materiálům =====

  * **Pro přístup k materiálům je vyžadováno přihlášení!**
   