~~NOTOC~~

====== BI-VMM - Vybrané matematické metody ======

//**Oficiální stránka předmětu**//

  * vyučující: [[:teacher:start]]
  * repozitář s materiály: [[https://gitlab.fit.cvut.cz/BI-VMM/bi-vmm|gitlab]]

===== Aktuality =====

{{blog>:news?10}}

   
